[
{
  "model": "dgauth.dguser",
  "pk": 1,
  "fields": {
    "password": "pbkdf2_sha256$260000$cgbdg1pYlRO6dq8OPENi18$mKt1H48pDZkxuMeG4BiyyKldPY31t3qqWu6t+M7ivGo=",
    "last_login": null,
    "is_superuser": true,
    "username": "admin",
    "first_name": "",
    "last_name": "",
    "email": "admin@example.com",
    "is_staff": true,
    "is_active": true,
    "date_joined": "2021-09-22T12:30:49.968Z",
    "preferences": "",
    "roles": "",
    "groups": [],
    "user_permissions": []
  }
},
{
  "model": "dgauth.dguser",
  "pk": 2,
  "fields": {
    "password": "pbkdf2_sha256$260000$lSDIoJtwq3UzZf9ikRcObm$mYC6NtMC+qfGSXNVyVclLwKLil/Yy24g59yjBOfRIwU=",
    "last_login": null,
    "is_superuser": false,
    "username": "Andy",
    "first_name": "",
    "last_name": "",
    "email": "andy@example.com",
    "is_staff": false,
    "is_active": true,
    "date_joined": "2021-09-22T12:30:50.110Z",
    "preferences": "",
    "roles": "",
    "groups": [],
    "user_permissions": []
  }
},
{
  "model": "dgauth.dguser",
  "pk": 3,
  "fields": {
    "password": "pbkdf2_sha256$260000$Ob2ZAtUa5K5Ea4byvl2Aqd$M/d1rFsvb+SJ4+w0GB7ArBRIxMSVVCo0y+TOgkD8hGE=",
    "last_login": null,
    "is_superuser": false,
    "username": "Kim",
    "first_name": "",
    "last_name": "",
    "email": "kim@example.com",
    "is_staff": false,
    "is_active": true,
    "date_joined": "2021-09-22T12:30:50.249Z",
    "preferences": "",
    "roles": "",
    "groups": [],
    "user_permissions": []
  }
},
{
  "model": "dgauth.dguser",
  "pk": 4,
  "fields": {
    "password": "pbkdf2_sha256$260000$KGIV095aCrJpknTIHrkqiO$4TKg7xpFPAs+Wg+uAGuL7Z2puw5rUwtxcLc6lm9leOs=",
    "last_login": null,
    "is_superuser": false,
    "username": "Pete",
    "first_name": "",
    "last_name": "",
    "email": "Pete@example.com",
    "is_staff": false,
    "is_active": true,
    "date_joined": "2021-09-22T12:30:50.394Z",
    "preferences": "",
    "roles": "",
    "groups": [],
    "user_permissions": []
  }
}
]
